[
{
  "model": "api.transaction",
  "pk": 1,
  "fields": {
    "price": 614011,
    "property_type": "Condo",
    "latitude": "43.663219",
    "longitude": "-79.430912"
  }
},
{
  "model": "api.transaction",
  "pk": 2,
  "fields": {
    "price": 1464553,
    "property_type": "Detached",
    "latitude": "43.658196",
    "longitude": "-79.433460"
  }
},
{
  "model": "api.transaction",
  "pk": 3,
  "fields": {
    "price": 1457000,
    "property_type": "Townhouse",
    "latitude": "43.651443",
    "longitude": "-79.379236"
  }
},
{
  "model": "api.transaction",
  "pk": 4,
  "fields": {
    "price": 1259705,
    "property_type": "Detached",
    "latitude": "43.667378",
    "longitude": "-79.438723"
  }
},
{
  "model": "api.transaction",
  "pk": 5,
  "fields": {
    "price": 1829116,
    "property_type": "Detached",
    "latitude": "43.654306",
    "longitude": "-79.380754"
  }
},
{
  "model": "api.transaction",
  "pk": 6,
  "fields": {
    "price": 589039,
    "property_type": "Detached",
    "latitude": "43.665791",
    "longitude": "-79.392649"
  }
},
{
  "model": "api.transaction",
  "pk": 7,
  "fields": {
    "price": 1030973,
    "property_type": "Townhouse",
    "latitude": "43.653972",
    "longitude": "-79.428379"
  }
},
{
  "model": "api.transaction",
  "pk": 8,
  "fields": {
    "price": 605474,
    "property_type": "Condo",
    "latitude": "43.680905",
    "longitude": "-79.391119"
  }
},
{
  "model": "api.transaction",
  "pk": 9,
  "fields": {
    "price": 1096975,
    "property_type": "Detached",
    "latitude": "43.680853",
    "longitude": "-79.437808"
  }
},
{
  "model": "api.transaction",
  "pk": 10,
  "fields": {
    "price": 1261765,
    "property_type": "Detached",
    "latitude": "43.671609",
    "longitude": "-79.378374"
  }
},
{
  "model": "api.transaction",
  "pk": 11,
  "fields": {
    "price": 1314762,
    "property_type": "Townhouse",
    "latitude": "43.683008",
    "longitude": "-79.426916"
  }
},
{
  "model": "api.transaction",
  "pk": 12,
  "fields": {
    "price": 506592,
    "property_type": "Townhouse",
    "latitude": "43.653698",
    "longitude": "-79.391343"
  }
},
{
  "model": "api.transaction",
  "pk": 13,
  "fields": {
    "price": 1546587,
    "property_type": "Townhouse",
    "latitude": "43.661420",
    "longitude": "-79.442737"
  }
},
{
  "model": "api.transaction",
  "pk": 14,
  "fields": {
    "price": 1738512,
    "property_type": "Detached",
    "latitude": "43.669237",
    "longitude": "-79.405235"
  }
},
{
  "model": "api.transaction",
  "pk": 15,
  "fields": {
    "price": 572936,
    "property_type": "Detached",
    "latitude": "43.651401",
    "longitude": "-79.355490"
  }
},
{
  "model": "api.transaction",
  "pk": 16,
  "fields": {
    "price": 952788,
    "property_type": "Townhouse",
    "latitude": "43.676843",
    "longitude": "-79.397500"
  }
},
{
  "model": "api.transaction",
  "pk": 17,
  "fields": {
    "price": 778299,
    "property_type": "Townhouse",
    "latitude": "43.684819",
    "longitude": "-79.357682"
  }
},
{
  "model": "api.transaction",
  "pk": 18,
  "fields": {
    "price": 815736,
    "property_type": "Townhouse",
    "latitude": "43.673444",
    "longitude": "-79.369398"
  }
},
{
  "model": "api.transaction",
  "pk": 19,
  "fields": {
    "price": 1682205,
    "property_type": "Townhouse",
    "latitude": "43.668295",
    "longitude": "-79.373312"
  }
},
{
  "model": "api.transaction",
  "pk": 20,
  "fields": {
    "price": 1000532,
    "property_type": "Condo",
    "latitude": "43.666835",
    "longitude": "-79.385892"
  }
},
{
  "model": "api.transaction",
  "pk": 21,
  "fields": {
    "price": 1205567,
    "property_type": "Detached",
    "latitude": "43.665260",
    "longitude": "-79.393428"
  }
},
{
  "model": "api.transaction",
  "pk": 22,
  "fields": {
    "price": 1351207,
    "property_type": "Townhouse",
    "latitude": "43.671845",
    "longitude": "-79.425892"
  }
},
{
  "model": "api.transaction",
  "pk": 23,
  "fields": {
    "price": 1112408,
    "property_type": "Townhouse",
    "latitude": "43.674974",
    "longitude": "-79.368355"
  }
},
{
  "model": "api.transaction",
  "pk": 24,
  "fields": {
    "price": 1873108,
    "property_type": "Detached",
    "latitude": "43.656075",
    "longitude": "-79.411077"
  }
},
{
  "model": "api.transaction",
  "pk": 25,
  "fields": {
    "price": 1033369,
    "property_type": "Detached",
    "latitude": "43.667062",
    "longitude": "-79.377746"
  }
},
{
  "model": "api.transaction",
  "pk": 26,
  "fields": {
    "price": 851126,
    "property_type": "Townhouse",
    "latitude": "43.657584",
    "longitude": "-79.397599"
  }
},
{
  "model": "api.transaction",
  "pk": 27,
  "fields": {
    "price": 1711059,
    "property_type": "Townhouse",
    "latitude": "43.659574",
    "longitude": "-79.417474"
  }
},
{
  "model": "api.transaction",
  "pk": 28,
  "fields": {
    "price": 732041,
    "property_type": "Condo",
    "latitude": "43.660710",
    "longitude": "-79.411857"
  }
},
{
  "model": "api.transaction",
  "pk": 29,
  "fields": {
    "price": 1450821,
    "property_type": "Condo",
    "latitude": "43.681071",
    "longitude": "-79.438961"
  }
},
{
  "model": "api.transaction",
  "pk": 30,
  "fields": {
    "price": 1611336,
    "property_type": "Townhouse",
    "latitude": "43.671326",
    "longitude": "-79.443908"
  }
},
{
  "model": "api.transaction",
  "pk": 31,
  "fields": {
    "price": 1656168,
    "property_type": "Detached",
    "latitude": "43.652537",
    "longitude": "-79.355570"
  }
},
{
  "model": "api.transaction",
  "pk": 32,
  "fields": {
    "price": 1283570,
    "property_type": "Condo",
    "latitude": "43.674210",
    "longitude": "-79.359187"
  }
},
{
  "model": "api.transaction",
  "pk": 33,
  "fields": {
    "price": 647430,
    "property_type": "Condo",
    "latitude": "43.677047",
    "longitude": "-79.394051"
  }
},
{
  "model": "api.transaction",
  "pk": 34,
  "fields": {
    "price": 1874809,
    "property_type": "Condo",
    "latitude": "43.680740",
    "longitude": "-79.417406"
  }
},
{
  "model": "api.transaction",
  "pk": 35,
  "fields": {
    "price": 540136,
    "property_type": "Detached",
    "latitude": "43.667437",
    "longitude": "-79.395787"
  }
},
{
  "model": "api.transaction",
  "pk": 36,
  "fields": {
    "price": 1712586,
    "property_type": "Detached",
    "latitude": "43.651395",
    "longitude": "-79.392327"
  }
},
{
  "model": "api.transaction",
  "pk": 37,
  "fields": {
    "price": 1326023,
    "property_type": "Townhouse",
    "latitude": "43.655748",
    "longitude": "-79.400962"
  }
},
{
  "model": "api.transaction",
  "pk": 38,
  "fields": {
    "price": 1325089,
    "property_type": "Detached",
    "latitude": "43.663391",
    "longitude": "-79.425105"
  }
},
{
  "model": "api.transaction",
  "pk": 39,
  "fields": {
    "price": 1929646,
    "property_type": "Townhouse",
    "latitude": "43.665719",
    "longitude": "-79.394291"
  }
},
{
  "model": "api.transaction",
  "pk": 40,
  "fields": {
    "price": 784120,
    "property_type": "Townhouse",
    "latitude": "43.668032",
    "longitude": "-79.415815"
  }
},
{
  "model": "api.transaction",
  "pk": 41,
  "fields": {
    "price": 943488,
    "property_type": "Detached",
    "latitude": "43.682520",
    "longitude": "-79.387463"
  }
},
{
  "model": "api.transaction",
  "pk": 42,
  "fields": {
    "price": 592496,
    "property_type": "Detached",
    "latitude": "43.671165",
    "longitude": "-79.435430"
  }
},
{
  "model": "api.transaction",
  "pk": 43,
  "fields": {
    "price": 1091497,
    "property_type": "Condo",
    "latitude": "43.656610",
    "longitude": "-79.404589"
  }
},
{
  "model": "api.transaction",
  "pk": 44,
  "fields": {
    "price": 1804160,
    "property_type": "Condo",
    "latitude": "43.654399",
    "longitude": "-79.409815"
  }
},
{
  "model": "api.transaction",
  "pk": 45,
  "fields": {
    "price": 1813982,
    "property_type": "Detached",
    "latitude": "43.666140",
    "longitude": "-79.384000"
  }
},
{
  "model": "api.transaction",
  "pk": 46,
  "fields": {
    "price": 1507227,
    "property_type": "Townhouse",
    "latitude": "43.663301",
    "longitude": "-79.417623"
  }
},
{
  "model": "api.transaction",
  "pk": 47,
  "fields": {
    "price": 1328201,
    "property_type": "Condo",
    "latitude": "43.677785",
    "longitude": "-79.381140"
  }
},
{
  "model": "api.transaction",
  "pk": 48,
  "fields": {
    "price": 1011342,
    "property_type": "Detached",
    "latitude": "43.665472",
    "longitude": "-79.431330"
  }
},
{
  "model": "api.transaction",
  "pk": 49,
  "fields": {
    "price": 790143,
    "property_type": "Detached",
    "latitude": "43.682838",
    "longitude": "-79.375849"
  }
},
{
  "model": "api.transaction",
  "pk": 50,
  "fields": {
    "price": 985278,
    "property_type": "Detached",
    "latitude": "43.651215",
    "longitude": "-79.361556"
  }
},
{
  "model": "api.transaction",
  "pk": 51,
  "fields": {
    "price": 922754,
    "property_type": "Detached",
    "latitude": "43.659761",
    "longitude": "-79.430147"
  }
},
{
  "model": "api.transaction",
  "pk": 52,
  "fields": {
    "price": 1470914,
    "property_type": "Detached",
    "latitude": "43.667842",
    "longitude": "-79.396570"
  }
},
{
  "model": "api.transaction",
  "pk": 53,
  "fields": {
    "price": 774838,
    "property_type": "Detached",
    "latitude": "43.656240",
    "longitude": "-79.389090"
  }
},
{
  "model": "api.transaction",
  "pk": 54,
  "fields": {
    "price": 1149046,
    "property_type": "Detached",
    "latitude": "43.662174",
    "longitude": "-79.440530"
  }
},
{
  "model": "api.transaction",
  "pk": 55,
  "fields": {
    "price": 1530014,
    "property_type": "Townhouse",
    "latitude": "43.683096",
    "longitude": "-79.412957"
  }
},
{
  "model": "api.transaction",
  "pk": 56,
  "fields": {
    "price": 998924,
    "property_type": "Townhouse",
    "latitude": "43.670118",
    "longitude": "-79.427450"
  }
},
{
  "model": "api.transaction",
  "pk": 57,
  "fields": {
    "price": 1959628,
    "property_type": "Detached",
    "latitude": "43.662062",
    "longitude": "-79.424749"
  }
},
{
  "model": "api.transaction",
  "pk": 58,
  "fields": {
    "price": 1925339,
    "property_type": "Condo",
    "latitude": "43.666241",
    "longitude": "-79.413734"
  }
},
{
  "model": "api.transaction",
  "pk": 59,
  "fields": {
    "price": 760633,
    "property_type": "Townhouse",
    "latitude": "43.670623",
    "longitude": "-79.417566"
  }
},
{
  "model": "api.transaction",
  "pk": 60,
  "fields": {
    "price": 619682,
    "property_type": "Townhouse",
    "latitude": "43.678372",
    "longitude": "-79.430783"
  }
},
{
  "model": "api.transaction",
  "pk": 61,
  "fields": {
    "price": 1173264,
    "property_type": "Condo",
    "latitude": "43.664902",
    "longitude": "-79.428064"
  }
},
{
  "model": "api.transaction",
  "pk": 62,
  "fields": {
    "price": 1939481,
    "property_type": "Condo",
    "latitude": "43.661007",
    "longitude": "-79.360903"
  }
},
{
  "model": "api.transaction",
  "pk": 63,
  "fields": {
    "price": 776129,
    "property_type": "Townhouse",
    "latitude": "43.684568",
    "longitude": "-79.406488"
  }
},
{
  "model": "api.transaction",
  "pk": 64,
  "fields": {
    "price": 1709792,
    "property_type": "Townhouse",
    "latitude": "43.674399",
    "longitude": "-79.365643"
  }
},
{
  "model": "api.transaction",
  "pk": 65,
  "fields": {
    "price": 825279,
    "property_type": "Townhouse",
    "latitude": "43.652067",
    "longitude": "-79.432817"
  }
},
{
  "model": "api.transaction",
  "pk": 66,
  "fields": {
    "price": 1209151,
    "property_type": "Condo",
    "latitude": "43.674270",
    "longitude": "-79.395370"
  }
},
{
  "model": "api.transaction",
  "pk": 67,
  "fields": {
    "price": 1771409,
    "property_type": "Condo",
    "latitude": "43.676661",
    "longitude": "-79.385242"
  }
},
{
  "model": "api.transaction",
  "pk": 68,
  "fields": {
    "price": 878780,
    "property_type": "Townhouse",
    "latitude": "43.653895",
    "longitude": "-79.361926"
  }
},
{
  "model": "api.transaction",
  "pk": 69,
  "fields": {
    "price": 1651059,
    "property_type": "Condo",
    "latitude": "43.666728",
    "longitude": "-79.397779"
  }
},
{
  "model": "api.transaction",
  "pk": 70,
  "fields": {
    "price": 1320155,
    "property_type": "Detached",
    "latitude": "43.666439",
    "longitude": "-79.433791"
  }
},
{
  "model": "api.transaction",
  "pk": 71,
  "fields": {
    "price": 1202663,
    "property_type": "Detached",
    "latitude": "43.668323",
    "longitude": "-79.393967"
  }
},
{
  "model": "api.transaction",
  "pk": 72,
  "fields": {
    "price": 759186,
    "property_type": "Townhouse",
    "latitude": "43.680395",
    "longitude": "-79.405575"
  }
},
{
  "model": "api.transaction",
  "pk": 73,
  "fields": {
    "price": 1485064,
    "property_type": "Townhouse",
    "latitude": "43.652613",
    "longitude": "-79.357935"
  }
},
{
  "model": "api.transaction",
  "pk": 74,
  "fields": {
    "price": 1509298,
    "property_type": "Detached",
    "latitude": "43.673474",
    "longitude": "-79.380683"
  }
},
{
  "model": "api.transaction",
  "pk": 75,
  "fields": {
    "price": 1559322,
    "property_type": "Condo",
    "latitude": "43.652720",
    "longitude": "-79.368161"
  }
},
{
  "model": "api.transaction",
  "pk": 76,
  "fields": {
    "price": 1918489,
    "property_type": "Condo",
    "latitude": "43.671523",
    "longitude": "-79.437317"
  }
},
{
  "model": "api.transaction",
  "pk": 77,
  "fields": {
    "price": 1328254,
    "property_type": "Detached",
    "latitude": "43.679834",
    "longitude": "-79.416955"
  }
},
{
  "model": "api.transaction",
  "pk": 78,
  "fields": {
    "price": 1691571,
    "property_type": "Detached",
    "latitude": "43.672047",
    "longitude": "-79.414603"
  }
},
{
  "model": "api.transaction",
  "pk": 79,
  "fields": {
    "price": 1163052,
    "property_type": "Townhouse",
    "latitude": "43.674038",
    "longitude": "-79.444123"
  }
},
{
  "model": "api.transaction",
  "pk": 80,
  "fields": {
    "price": 1114302,
    "property_type": "Detached",
    "latitude": "43.673086",
    "longitude": "-79.420420"
  }
},
{
  "model": "api.transaction",
  "pk": 81,
  "fields": {
    "price": 746456,
    "property_type": "Townhouse",
    "latitude": "43.654660",
    "longitude": "-79.406932"
  }
},
{
  "model": "api.transaction",
  "pk": 82,
  "fields": {
    "price": 587313,
    "property_type": "Townhouse",
    "latitude": "43.668812",
    "longitude": "-79.430086"
  }
},
{
  "model": "api.transaction",
  "pk": 83,
  "fields": {
    "price": 919894,
    "property_type": "Detached",
    "latitude": "43.659640",
    "longitude": "-79.364988"
  }
},
{
  "model": "api.transaction",
  "pk": 84,
  "fields": {
    "price": 1670356,
    "property_type": "Detached",
    "latitude": "43.680802",
    "longitude": "-79.400607"
  }
},
{
  "model": "api.transaction",
  "pk": 85,
  "fields": {
    "price": 689121,
    "property_type": "Condo",
    "latitude": "43.681517",
    "longitude": "-79.418813"
  }
},
{
  "model": "api.transaction",
  "pk": 86,
  "fields": {
    "price": 731170,
    "property_type": "Detached",
    "latitude": "43.663796",
    "longitude": "-79.435739"
  }
},
{
  "model": "api.transaction",
  "pk": 87,
  "fields": {
    "price": 595305,
    "property_type": "Detached",
    "latitude": "43.663052",
    "longitude": "-79.396947"
  }
},
{
  "model": "api.transaction",
  "pk": 88,
  "fields": {
    "price": 840723,
    "property_type": "Townhouse",
    "latitude": "43.677608",
    "longitude": "-79.442730"
  }
},
{
  "model": "api.transaction",
  "pk": 89,
  "fields": {
    "price": 1584160,
    "property_type": "Detached",
    "latitude": "43.665687",
    "longitude": "-79.386277"
  }
},
{
  "model": "api.transaction",
  "pk": 90,
  "fields": {
    "price": 1972471,
    "property_type": "Condo",
    "latitude": "43.664794",
    "longitude": "-79.364114"
  }
},
{
  "model": "api.transaction",
  "pk": 91,
  "fields": {
    "price": 793867,
    "property_type": "Detached",
    "latitude": "43.684261",
    "longitude": "-79.384834"
  }
},
{
  "model": "api.transaction",
  "pk": 92,
  "fields": {
    "price": 654521,
    "property_type": "Condo",
    "latitude": "43.665790",
    "longitude": "-79.401599"
  }
},
{
  "model": "api.transaction",
  "pk": 93,
  "fields": {
    "price": 1380640,
    "property_type": "Condo",
    "latitude": "43.668568",
    "longitude": "-79.388152"
  }
},
{
  "model": "api.transaction",
  "pk": 94,
  "fields": {
    "price": 1819058,
    "property_type": "Condo",
    "latitude": "43.667068",
    "longitude": "-79.375988"
  }
},
{
  "model": "api.transaction",
  "pk": 95,
  "fields": {
    "price": 849430,
    "property_type": "Townhouse",
    "latitude": "43.668564",
    "longitude": "-79.374111"
  }
},
{
  "model": "api.transaction",
  "pk": 96,
  "fields": {
    "price": 1730846,
    "property_type": "Detached",
    "latitude": "43.662263",
    "longitude": "-79.423855"
  }
},
{
  "model": "api.transaction",
  "pk": 97,
  "fields": {
    "price": 1784502,
    "property_type": "Townhouse",
    "latitude": "43.674988",
    "longitude": "-79.396852"
  }
},
{
  "model": "api.transaction",
  "pk": 98,
  "fields": {
    "price": 702576,
    "property_type": "Detached",
    "latitude": "43.654496",
    "longitude": "-79.363927"
  }
},
{
  "model": "api.transaction",
  "pk": 99,
  "fields": {
    "price": 1776710,
    "property_type": "Detached",
    "latitude": "43.668200",
    "longitude": "-79.359015"
  }
},
{
  "model": "api.transaction",
  "pk": 100,
  "fields": {
    "price": 1883979,
    "property_type": "Townhouse",
    "latitude": "43.654368",
    "longitude": "-79.415607"
  }
},
{
  "model": "api.transaction",
  "pk": 101,
  "fields": {
    "price": 1497197,
    "property_type": "Detached",
    "latitude": "43.678219",
    "longitude": "-79.368028"
  }
},
{
  "model": "api.transaction",
  "pk": 102,
  "fields": {
    "price": 829192,
    "property_type": "Detached",
    "latitude": "43.657276",
    "longitude": "-79.435914"
  }
},
{
  "model": "api.transaction",
  "pk": 103,
  "fields": {
    "price": 1232600,
    "property_type": "Townhouse",
    "latitude": "43.674595",
    "longitude": "-79.432375"
  }
},
{
  "model": "api.transaction",
  "pk": 104,
  "fields": {
    "price": 1262329,
    "property_type": "Detached",
    "latitude": "43.658330",
    "longitude": "-79.441644"
  }
},
{
  "model": "api.transaction",
  "pk": 105,
  "fields": {
    "price": 725788,
    "property_type": "Detached",
    "latitude": "43.669034",
    "longitude": "-79.428757"
  }
},
{
  "model": "api.transaction",
  "pk": 106,
  "fields": {
    "price": 1524404,
    "property_type": "Condo",
    "latitude": "43.672278",
    "longitude": "-79.418511"
  }
},
{
  "model": "api.transaction",
  "pk": 107,
  "fields": {
    "price": 1369075,
    "property_type": "Townhouse",
    "latitude": "43.667878",
    "longitude": "-79.429261"
  }
},
{
  "model": "api.transaction",
  "pk": 108,
  "fields": {
    "price": 743813,
    "property_type": "Townhouse",
    "latitude": "43.671251",
    "longitude": "-79.387943"
  }
},
{
  "model": "api.transaction",
  "pk": 109,
  "fields": {
    "price": 1844793,
    "property_type": "Townhouse",
    "latitude": "43.681721",
    "longitude": "-79.431626"
  }
},
{
  "model": "api.transaction",
  "pk": 110,
  "fields": {
    "price": 1003511,
    "property_type": "Detached",
    "latitude": "43.656726",
    "longitude": "-79.412379"
  }
},
{
  "model": "api.transaction",
  "pk": 111,
  "fields": {
    "price": 904265,
    "property_type": "Townhouse",
    "latitude": "43.656352",
    "longitude": "-79.356907"
  }
},
{
  "model": "api.transaction",
  "pk": 112,
  "fields": {
    "price": 1152541,
    "property_type": "Townhouse",
    "latitude": "43.662557",
    "longitude": "-79.360868"
  }
},
{
  "model": "api.transaction",
  "pk": 113,
  "fields": {
    "price": 1932989,
    "property_type": "Townhouse",
    "latitude": "43.653116",
    "longitude": "-79.423063"
  }
},
{
  "model": "api.transaction",
  "pk": 114,
  "fields": {
    "price": 1577469,
    "property_type": "Condo",
    "latitude": "43.665550",
    "longitude": "-79.410074"
  }
},
{
  "model": "api.transaction",
  "pk": 115,
  "fields": {
    "price": 861281,
    "property_type": "Condo",
    "latitude": "43.662704",
    "longitude": "-79.431721"
  }
},
{
  "model": "api.transaction",
  "pk": 116,
  "fields": {
    "price": 1969956,
    "property_type": "Townhouse",
    "latitude": "43.675614",
    "longitude": "-79.421700"
  }
},
{
  "model": "api.transaction",
  "pk": 117,
  "fields": {
    "price": 1877990,
    "property_type": "Condo",
    "latitude": "43.657002",
    "longitude": "-79.404628"
  }
},
{
  "model": "api.transaction",
  "pk": 118,
  "fields": {
    "price": 1645220,
    "property_type": "Detached",
    "latitude": "43.660948",
    "longitude": "-79.401346"
  }
},
{
  "model": "api.transaction",
  "pk": 119,
  "fields": {
    "price": 1825408,
    "property_type": "Detached",
    "latitude": "43.680873",
    "longitude": "-79.395113"
  }
},
{
  "model": "api.transaction",
  "pk": 120,
  "fields": {
    "price": 1683953,
    "property_type": "Detached",
    "latitude": "43.662202",
    "longitude": "-79.432114"
  }
},
{
  "model": "api.transaction",
  "pk": 121,
  "fields": {
    "price": 1504922,
    "property_type": "Townhouse",
    "latitude": "43.660215",
    "longitude": "-79.416159"
  }
},
{
  "model": "api.transaction",
  "pk": 122,
  "fields": {
    "price": 1762973,
    "property_type": "Detached",
    "latitude": "43.674011",
    "longitude": "-79.444234"
  }
},
{
  "model": "api.transaction",
  "pk": 123,
  "fields": {
    "price": 1032707,
    "property_type": "Townhouse",
    "latitude": "43.676192",
    "longitude": "-79.355845"
  }
},
{
  "model": "api.transaction",
  "pk": 124,
  "fields": {
    "price": 517266,
    "property_type": "Townhouse",
    "latitude": "43.664064",
    "longitude": "-79.380117"
  }
},
{
  "model": "api.transaction",
  "pk": 125,
  "fields": {
    "price": 790495,
    "property_type": "Detached",
    "latitude": "43.677265",
    "longitude": "-79.401275"
  }
},
{
  "model": "api.transaction",
  "pk": 126,
  "fields": {
    "price": 507895,
    "property_type": "Townhouse",
    "latitude": "43.654019",
    "longitude": "-79.359189"
  }
},
{
  "model": "api.transaction",
  "pk": 127,
  "fields": {
    "price": 1054841,
    "property_type": "Detached",
    "latitude": "43.676787",
    "longitude": "-79.377321"
  }
},
{
  "model": "api.transaction",
  "pk": 128,
  "fields": {
    "price": 662333,
    "property_type": "Detached",
    "latitude": "43.671228",
    "longitude": "-79.440312"
  }
},
{
  "model": "api.transaction",
  "pk": 129,
  "fields": {
    "price": 1591899,
    "property_type": "Condo",
    "latitude": "43.651778",
    "longitude": "-79.387591"
  }
},
{
  "model": "api.transaction",
  "pk": 130,
  "fields": {
    "price": 1523789,
    "property_type": "Condo",
    "latitude": "43.662928",
    "longitude": "-79.397193"
  }
},
{
  "model": "api.transaction",
  "pk": 131,
  "fields": {
    "price": 535594,
    "property_type": "Detached",
    "latitude": "43.666230",
    "longitude": "-79.404844"
  }
},
{
  "model": "api.transaction",
  "pk": 132,
  "fields": {
    "price": 1026260,
    "property_type": "Detached",
    "latitude": "43.662639",
    "longitude": "-79.436397"
  }
},
{
  "model": "api.transaction",
  "pk": 133,
  "fields": {
    "price": 1047125,
    "property_type": "Townhouse",
    "latitude": "43.651764",
    "longitude": "-79.393229"
  }
},
{
  "model": "api.transaction",
  "pk": 134,
  "fields": {
    "price": 586203,
    "property_type": "Townhouse",
    "latitude": "43.665183",
    "longitude": "-79.395528"
  }
},
{
  "model": "api.transaction",
  "pk": 135,
  "fields": {
    "price": 1272370,
    "property_type": "Detached",
    "latitude": "43.651944",
    "longitude": "-79.442366"
  }
},
{
  "model": "api.transaction",
  "pk": 136,
  "fields": {
    "price": 801035,
    "property_type": "Condo",
    "latitude": "43.677328",
    "longitude": "-79.360853"
  }
},
{
  "model": "api.transaction",
  "pk": 137,
  "fields": {
    "price": 1572006,
    "property_type": "Condo",
    "latitude": "43.671026",
    "longitude": "-79.379167"
  }
},
{
  "model": "api.transaction",
  "pk": 138,
  "fields": {
    "price": 1241888,
    "property_type": "Detached",
    "latitude": "43.665573",
    "longitude": "-79.404184"
  }
},
{
  "model": "api.transaction",
  "pk": 139,
  "fields": {
    "price": 632706,
    "property_type": "Townhouse",
    "latitude": "43.654413",
    "longitude": "-79.419262"
  }
},
{
  "model": "api.transaction",
  "pk": 140,
  "fields": {
    "price": 1420723,
    "property_type": "Detached",
    "latitude": "43.681867",
    "longitude": "-79.440466"
  }
},
{
  "model": "api.transaction",
  "pk": 141,
  "fields": {
    "price": 1466259,
    "property_type": "Detached",
    "latitude": "43.674950",
    "longitude": "-79.406484"
  }
},
{
  "model": "api.transaction",
  "pk": 142,
  "fields": {
    "price": 1971275,
    "property_type": "Condo",
    "latitude": "43.655038",
    "longitude": "-79.443359"
  }
},
{
  "model": "api.transaction",
  "pk": 143,
  "fields": {
    "price": 1912126,
    "property_type": "Townhouse",
    "latitude": "43.657742",
    "longitude": "-79.437234"
  }
},
{
  "model": "api.transaction",
  "pk": 144,
  "fields": {
    "price": 1360175,
    "property_type": "Condo",
    "latitude": "43.666061",
    "longitude": "-79.421651"
  }
},
{
  "model": "api.transaction",
  "pk": 145,
  "fields": {
    "price": 869929,
    "property_type": "Townhouse",
    "latitude": "43.657726",
    "longitude": "-79.396437"
  }
},
{
  "model": "api.transaction",
  "pk": 146,
  "fields": {
    "price": 852632,
    "property_type": "Detached",
    "latitude": "43.659226",
    "longitude": "-79.358900"
  }
},
{
  "model": "api.transaction",
  "pk": 147,
  "fields": {
    "price": 1623940,
    "property_type": "Townhouse",
    "latitude": "43.659216",
    "longitude": "-79.402209"
  }
},
{
  "model": "api.transaction",
  "pk": 148,
  "fields": {
    "price": 569542,
    "property_type": "Detached",
    "latitude": "43.653492",
    "longitude": "-79.441175"
  }
},
{
  "model": "api.transaction",
  "pk": 149,
  "fields": {
    "price": 836525,
    "property_type": "Townhouse",
    "latitude": "43.667494",
    "longitude": "-79.400869"
  }
},
{
  "model": "api.transaction",
  "pk": 150,
  "fields": {
    "price": 749549,
    "property_type": "Detached",
    "latitude": "43.668601",
    "longitude": "-79.370627"
  }
},
{
  "model": "api.transaction",
  "pk": 151,
  "fields": {
    "price": 1988974,
    "property_type": "Condo",
    "latitude": "43.666981",
    "longitude": "-79.383272"
  }
},
{
  "model": "api.transaction",
  "pk": 152,
  "fields": {
    "price": 1552515,
    "property_type": "Condo",
    "latitude": "43.657207",
    "longitude": "-79.357797"
  }
},
{
  "model": "api.transaction",
  "pk": 153,
  "fields": {
    "price": 604225,
    "property_type": "Townhouse",
    "latitude": "43.668006",
    "longitude": "-79.414916"
  }
},
{
  "model": "api.transaction",
  "pk": 154,
  "fields": {
    "price": 1935237,
    "property_type": "Detached",
    "latitude": "43.673588",
    "longitude": "-79.429028"
  }
},
{
  "model": "api.transaction",
  "pk": 155,
  "fields": {
    "price": 666136,
    "property_type": "Detached",
    "latitude": "43.676500",
    "longitude": "-79.426154"
  }
},
{
  "model": "api.transaction",
  "pk": 156,
  "fields": {
    "price": 1677770,
    "property_type": "Townhouse",
    "latitude": "43.655692",
    "longitude": "-79.389698"
  }
},
{
  "model": "api.transaction",
  "pk": 157,
  "fields": {
    "price": 949288,
    "property_type": "Townhouse",
    "latitude": "43.681990",
    "longitude": "-79.423659"
  }
},
{
  "model": "api.transaction",
  "pk": 158,
  "fields": {
    "price": 685270,
    "property_type": "Townhouse",
    "latitude": "43.658863",
    "longitude": "-79.397579"
  }
},
{
  "model": "api.transaction",
  "pk": 159,
  "fields": {
    "price": 1795956,
    "property_type": "Townhouse",
    "latitude": "43.661990",
    "longitude": "-79.425808"
  }
},
{
  "model": "api.transaction",
  "pk": 160,
  "fields": {
    "price": 1906718,
    "property_type": "Townhouse",
    "latitude": "43.662731",
    "longitude": "-79.364176"
  }
},
{
  "model": "api.transaction",
  "pk": 161,
  "fields": {
    "price": 1687047,
    "property_type": "Townhouse",
    "latitude": "43.653358",
    "longitude": "-79.371696"
  }
},
{
  "model": "api.transaction",
  "pk": 162,
  "fields": {
    "price": 1713871,
    "property_type": "Detached",
    "latitude": "43.667037",
    "longitude": "-79.436009"
  }
},
{
  "model": "api.transaction",
  "pk": 163,
  "fields": {
    "price": 1604461,
    "property_type": "Detached",
    "latitude": "43.678184",
    "longitude": "-79.377673"
  }
},
{
  "model": "api.transaction",
  "pk": 164,
  "fields": {
    "price": 527457,
    "property_type": "Condo",
    "latitude": "43.663594",
    "longitude": "-79.395849"
  }
},
{
  "model": "api.transaction",
  "pk": 165,
  "fields": {
    "price": 665627,
    "property_type": "Townhouse",
    "latitude": "43.675952",
    "longitude": "-79.386414"
  }
},
{
  "model": "api.transaction",
  "pk": 166,
  "fields": {
    "price": 1231348,
    "property_type": "Townhouse",
    "latitude": "43.672352",
    "longitude": "-79.377246"
  }
},
{
  "model": "api.transaction",
  "pk": 167,
  "fields": {
    "price": 1634325,
    "property_type": "Condo",
    "latitude": "43.653055",
    "longitude": "-79.402245"
  }
},
{
  "model": "api.transaction",
  "pk": 168,
  "fields": {
    "price": 1118720,
    "property_type": "Townhouse",
    "latitude": "43.677032",
    "longitude": "-79.409167"
  }
},
{
  "model": "api.transaction",
  "pk": 169,
  "fields": {
    "price": 717997,
    "property_type": "Townhouse",
    "latitude": "43.654699",
    "longitude": "-79.430333"
  }
},
{
  "model": "api.transaction",
  "pk": 170,
  "fields": {
    "price": 903528,
    "property_type": "Detached",
    "latitude": "43.684575",
    "longitude": "-79.443067"
  }
},
{
  "model": "api.transaction",
  "pk": 171,
  "fields": {
    "price": 1973496,
    "property_type": "Townhouse",
    "latitude": "43.654904",
    "longitude": "-79.367588"
  }
},
{
  "model": "api.transaction",
  "pk": 172,
  "fields": {
    "price": 1645006,
    "property_type": "Condo",
    "latitude": "43.669177",
    "longitude": "-79.429062"
  }
},
{
  "model": "api.transaction",
  "pk": 173,
  "fields": {
    "price": 1091860,
    "property_type": "Detached",
    "latitude": "43.652099",
    "longitude": "-79.425008"
  }
},
{
  "model": "api.transaction",
  "pk": 174,
  "fields": {
    "price": 1866893,
    "property_type": "Condo",
    "latitude": "43.667991",
    "longitude": "-79.369729"
  }
},
{
  "model": "api.transaction",
  "pk": 175,
  "fields": {
    "price": 1878386,
    "property_type": "Condo",
    "latitude": "43.682432",
    "longitude": "-79.370339"
  }
},
{
  "model": "api.transaction",
  "pk": 176,
  "fields": {
    "price": 1241588,
    "property_type": "Townhouse",
    "latitude": "43.684479",
    "longitude": "-79.432318"
  }
},
{
  "model": "api.transaction",
  "pk": 177,
  "fields": {
    "price": 552656,
    "property_type": "Condo",
    "latitude": "43.656073",
    "longitude": "-79.422930"
  }
},
{
  "model": "api.transaction",
  "pk": 178,
  "fields": {
    "price": 1533472,
    "property_type": "Condo",
    "latitude": "43.671343",
    "longitude": "-79.377694"
  }
},
{
  "model": "api.transaction",
  "pk": 179,
  "fields": {
    "price": 844247,
    "property_type": "Townhouse",
    "latitude": "43.677320",
    "longitude": "-79.438877"
  }
},
{
  "model": "api.transaction",
  "pk": 180,
  "fields": {
    "price": 710389,
    "property_type": "Condo",
    "latitude": "43.659306",
    "longitude": "-79.389070"
  }
},
{
  "model": "api.transaction",
  "pk": 181,
  "fields": {
    "price": 1685270,
    "property_type": "Condo",
    "latitude": "43.681007",
    "longitude": "-79.418884"
  }
},
{
  "model": "api.transaction",
  "pk": 182,
  "fields": {
    "price": 700025,
    "property_type": "Condo",
    "latitude": "43.667437",
    "longitude": "-79.384009"
  }
},
{
  "model": "api.transaction",
  "pk": 183,
  "fields": {
    "price": 1081590,
    "property_type": "Condo",
    "latitude": "43.670027",
    "longitude": "-79.420563"
  }
},
{
  "model": "api.transaction",
  "pk": 184,
  "fields": {
    "price": 773077,
    "property_type": "Detached",
    "latitude": "43.652288",
    "longitude": "-79.436577"
  }
},
{
  "model": "api.transaction",
  "pk": 185,
  "fields": {
    "price": 1821089,
    "property_type": "Condo",
    "latitude": "43.672216",
    "longitude": "-79.421876"
  }
},
{
  "model": "api.transaction",
  "pk": 186,
  "fields": {
    "price": 792399,
    "property_type": "Condo",
    "latitude": "43.653356",
    "longitude": "-79.365060"
  }
},
{
  "model": "api.transaction",
  "pk": 187,
  "fields": {
    "price": 1828679,
    "property_type": "Condo",
    "latitude": "43.663287",
    "longitude": "-79.435370"
  }
},
{
  "model": "api.transaction",
  "pk": 188,
  "fields": {
    "price": 592577,
    "property_type": "Townhouse",
    "latitude": "43.674029",
    "longitude": "-79.425754"
  }
},
{
  "model": "api.transaction",
  "pk": 189,
  "fields": {
    "price": 1697783,
    "property_type": "Detached",
    "latitude": "43.673636",
    "longitude": "-79.441406"
  }
},
{
  "model": "api.transaction",
  "pk": 190,
  "fields": {
    "price": 512753,
    "property_type": "Condo",
    "latitude": "43.675297",
    "longitude": "-79.378942"
  }
},
{
  "model": "api.transaction",
  "pk": 191,
  "fields": {
    "price": 1474283,
    "property_type": "Condo",
    "latitude": "43.669595",
    "longitude": "-79.426787"
  }
},
{
  "model": "api.transaction",
  "pk": 192,
  "fields": {
    "price": 695201,
    "property_type": "Townhouse",
    "latitude": "43.681459",
    "longitude": "-79.421865"
  }
},
{
  "model": "api.transaction",
  "pk": 193,
  "fields": {
    "price": 895756,
    "property_type": "Townhouse",
    "latitude": "43.675532",
    "longitude": "-79.423802"
  }
},
{
  "model": "api.transaction",
  "pk": 194,
  "fields": {
    "price": 656650,
    "property_type": "Townhouse",
    "latitude": "43.658443",
    "longitude": "-79.357173"
  }
},
{
  "model": "api.transaction",
  "pk": 195,
  "fields": {
    "price": 1686926,
    "property_type": "Townhouse",
    "latitude": "43.672520",
    "longitude": "-79.406294"
  }
},
{
  "model": "api.transaction",
  "pk": 196,
  "fields": {
    "price": 1691814,
    "property_type": "Townhouse",
    "latitude": "43.653826",
    "longitude": "-79.421093"
  }
},
{
  "model": "api.transaction",
  "pk": 197,
  "fields": {
    "price": 724168,
    "property_type": "Condo",
    "latitude": "43.657773",
    "longitude": "-79.386606"
  }
},
{
  "model": "api.transaction",
  "pk": 198,
  "fields": {
    "price": 1793510,
    "property_type": "Condo",
    "latitude": "43.664477",
    "longitude": "-79.356474"
  }
},
{
  "model": "api.transaction",
  "pk": 199,
  "fields": {
    "price": 1053302,
    "property_type": "Condo",
    "latitude": "43.677836",
    "longitude": "-79.396856"
  }
},
{
  "model": "api.transaction",
  "pk": 200,
  "fields": {
    "price": 1544281,
    "property_type": "Condo",
    "latitude": "43.670953",
    "longitude": "-79.360860"
  }
}
]
